<?xml version="1.0" encoding="UTF-8"?>
<!DOCTYPE svg PUBLIC "-//W3C//DTD SVG 1.1//EN" "http://www.w3.org/Graphics/SVG/1.1/DTD/svg11.dtd">
<svg version="1.1" id="Layer_1" xmlns="http://www.w3.org/2000/svg" x="0" y="0" width="394" height="34" viewBox="0 0 394 34" xml:space="preserve">
  <style>
    .st0{opacity:0.3;fill:#4C4C4C}.st1{fill:#5E5E5E}
  </style>
  <path class="st0" d="M135.4 29L103 14.7l25.3-6.9.2.5 6.9 20.7zm-29.2-14.1L133.6 27l-6-18-21.4 5.9zM210.4 21l-1.9-.3-59.3-9.9 42.2-6c.2.1 19 16.2 19 16.2zm-53.9-10.1l50.3 8.4L191.2 6l-34.7 4.9zM265.7 24.2l-46.8-9.4 44.5-7.2.1.5 2.2 16.1zm-40.6-9.3l39.4 7.9-2-13.9-37.4 6z"/>
  <path class="st0" d="M171.3 29.3l-26.6-8.7 44.4-9-17.8 17.7zM149 20.8l22 7.2 14.7-14.7-36.7 7.5zM290.6 29.4l-57.3-5.6 23.4-8.7 33.9 14.3zm-52.4-6.3l45.3 4.5-26.8-11.3-18.5 6.8zM320.2 24.1c-.1 0-28.5-7.7-28.5-7.7l56.9-4.1-28.4 11.8zM298.3 17l21.8 5.9 21.8-9-43.6 3.1zM98.5 22.2l-52.8-4.4v-1.1l27.5-3.3c.1 0 25.3 8.8 25.3 8.8zm-47.3-5.1l38.7 3.2-16.8-5.9-21.9 2.7z"/>
  <path class="st0" d="M6.2 13.5H387v1.1H6.2z"/>
  <path class="st1" d="M136.7 28c0 1.3-1 2.4-2.2 2.4-1.2 0-2.2-1.1-2.2-2.4 0-1.3 1-2.4 2.2-2.4 1.2 0 2.2 1.1 2.2 2.4zM130.1 8.4c0 1.3-1 2.4-2.2 2.4-1.2 0-2.2-1.1-2.2-2.4 0-1.3 1-2.4 2.2-2.4 1.3 0 2.2 1.1 2.2 2.4zM106.7 14.8c0 1.3-1 2.4-2.2 2.4-1.2 0-2.2-1.1-2.2-2.4 0-1.3 1-2.4 2.2-2.4 1.3.1 2.2 1.1 2.2 2.4zM210.7 20.1c0 1.3-1 2.4-2.2 2.4-1.2 0-2.2-1.1-2.2-2.4 0-1.3 1-2.4 2.2-2.4 1.2.1 2.2 1.1 2.2 2.4zM193.5 5.4c0 1.3-1 2.4-2.2 2.4-1.2 0-2.2-1.1-2.2-2.4 0-1.3 1-2.4 2.2-2.4 1.2 0 2.2 1.1 2.2 2.4zM155 10.8c0 1.3-1 2.4-2.2 2.4-1.2 0-2.2-1.1-2.2-2.4 0-1.3 1-2.4 2.2-2.4 1.2 0 2.2 1.1 2.2 2.4zM267.3 23.5c0 1.3-1 2.4-2.2 2.4-1.2 0-2.2-1.1-2.2-2.4 0-1.3 1-2.4 2.2-2.4 1.2.1 2.2 1.1 2.2 2.4zM265.1 8.3c0 1.3-1 2.4-2.1 2.4-1.2 0-2.2-1.1-2.2-2.4 0-1.3 1-2.4 2.2-2.4 1.1 0 2.1 1.1 2.1 2.4zM224.2 14.9c0 1.3-1 2.4-2.2 2.4-1.2 0-2.2-1.1-2.2-2.4 0-1.3 1-2.4 2.2-2.4 1.2 0 2.2 1.1 2.2 2.4zM173.3 28.6c0 1.3-1 2.4-2.2 2.4-1.2 0-2.2-1.1-2.2-2.4 0-1.3 1-2.4 2.2-2.4 1.2.1 2.2 1.1 2.2 2.4zM189.5 12.4c0 1.3-1 2.4-2.2 2.4-1.2 0-2.2-1.1-2.2-2.4 0-1.3 1-2.4 2.2-2.4 1.3.1 2.2 1.1 2.2 2.4zM149 20.7c0 1.3-1 2.4-2.2 2.4-1.2 0-2.2-1.1-2.2-2.4 0-1.3 1-2.4 2.2-2.4 1.2 0 2.2 1.1 2.2 2.4zM289.2 28.5c0 1.3-1 2.4-2.2 2.4-1.2 0-2.2-1.1-2.2-2.4 0-1.3 1-2.4 2.2-2.4 1.2 0 2.2 1.1 2.2 2.4zM258.8 15.7c0 1.3-1 2.4-2.2 2.4-1.2 0-2.2-1.1-2.2-2.4 0-1.3 1-2.4 2.2-2.4 1.3 0 2.2 1.1 2.2 2.4zM237.9 23.4c0 1.3-1 2.4-2.2 2.4-1.2 0-2.2-1.1-2.2-2.4 0-1.3 1-2.4 2.2-2.4 1.2.1 2.2 1.1 2.2 2.4zM347.4 13.1c0 1.3-1 2.4-2.2 2.4-1.2 0-2.2-1.1-2.2-2.4 0-1.3 1-2.4 2.2-2.4 1.3 0 2.2 1.1 2.2 2.4zM322.3 23.5c0 1.3-1 2.4-2.2 2.4-1.2 0-2.2-1.1-2.2-2.4 0-1.3 1-2.4 2.2-2.4 1.3 0 2.2 1.1 2.2 2.4zM297.2 16.7c0 1.3-1 2.4-2.1 2.4-1.2 0-2.2-1.1-2.2-2.4 0-1.3 1-2.4 2.2-2.4 1.1 0 2.1 1.1 2.1 2.4zM96.3 21.3c0 1.3-1 2.4-2.2 2.4-1.2 0-2.1-1.1-2.1-2.4 0-1.3 1-2.4 2.1-2.4 1.3 0 2.2 1 2.2 2.4zM75.3 13.9c0 1.3-1 2.4-2.2 2.4-1.2 0-2.2-1.1-2.2-2.4 0-1.3 1-2.4 2.2-2.4 1.2 0 2.2 1.1 2.2 2.4zM47.9 17.2c0 1.3-1 2.4-2.2 2.4-1.2 0-2.2-1.1-2.2-2.4 0-1.3 1-2.4 2.2-2.4 1.2 0 2.2 1.1 2.2 2.4zM389.2 14.1c0 1.3-1 2.4-2.2 2.4-1.2 0-2.2-1.1-2.2-2.4 0-1.3 1-2.4 2.2-2.4 1.3 0 2.2 1.1 2.2 2.4zM9.1 14.1c0 1.3-1 2.4-2.2 2.4-1.2 0-2.2-1.1-2.2-2.4 0-1.3 1-2.4 2.2-2.4 1.2 0 2.2 1.1 2.2 2.4z"/>
</svg>
